<?xml version="1.0" encoding="UTF-8" standalone="no"?>
<!-- Created with Inkscape (http://www.inkscape.org/) -->

<svg
   xmlns:dc="http://purl.org/dc/elements/1.1/"
   xmlns:cc="http://creativecommons.org/ns#"
   xmlns:rdf="http://www.w3.org/1999/02/22-rdf-syntax-ns#"
   xmlns:svg="http://www.w3.org/2000/svg"
   xmlns="http://www.w3.org/2000/svg"
   xmlns:sodipodi="http://sodipodi.sourceforge.net/DTD/sodipodi-0.dtd"
   xmlns:inkscape="http://www.inkscape.org/namespaces/inkscape"
   width="500mm"
   height="500mm"
   viewBox="0 0 500 500"
   version="1.1"
   id="svg8"
   inkscape:version="0.92.2 5c3e80d, 2017-08-06"
   sodipodi:docname="icon.svg">
  <defs
     id="defs2" />
  <sodipodi:namedview
     id="base"
     pagecolor="#ffffff"
     bordercolor="#666666"
     borderopacity="1.0"
     inkscape:pageopacity="0.0"
     inkscape:pageshadow="2"
     inkscape:zoom="0.11313708"
     inkscape:cx="1831.3129"
     inkscape:cy="1459.9614"
     inkscape:document-units="mm"
     inkscape:current-layer="layer4"
     showgrid="false"
     inkscape:pagecheckerboard="true"
     inkscape:window-width="1920"
     inkscape:window-height="1015"
     inkscape:window-x="0"
     inkscape:window-y="0"
     inkscape:window-maximized="1" />
  <metadata
     id="metadata5">
    <rdf:RDF>
      <cc:Work
         rdf:about="">
        <dc:format>image/svg+xml</dc:format>
        <dc:type
           rdf:resource="http://purl.org/dc/dcmitype/StillImage" />
        <dc:title />
      </cc:Work>
    </rdf:RDF>
  </metadata>
  <g
     inkscape:groupmode="layer"
     id="layer4"
     inkscape:label="Hintergrund"
     style="display:inline"
     sodipodi:insensitive="true">
    <rect
       style="display:inline;opacity:1;fill:#ff5722;fill-opacity:1;fill-rule:nonzero;stroke:none;stroke-width:0.35277778;stroke-linecap:round;stroke-linejoin:miter;stroke-miterlimit:4;stroke-dasharray:none;stroke-dashoffset:0;stroke-opacity:1"
       id="rect967"
       width="500"
       height="500"
       x="0"
       y="0"
       rx="50"
       ry="50" />
  </g>
  <g
     inkscape:groupmode="layer"
     id="layer2"
     inkscape:label="Besteck"
     style="display:inline"
     sodipodi:insensitive="true">
    <g
       id="g979"
       style="fill:#f9f9f9">
      <path
         inkscape:connector-curvature="0"
         transform="scale(0.26458333)"
         id="path847"
         d="M 1771.4297,607.79883 V 273.83789 c 0,-42.72808 -17.84,-55.58789 -40,-55.58789 -36.6368,0 -54.4588,95.67653 -63.1699,204.47461 a 893.25353,893.25353 0 0 1 28.2695,39.53125 893.25353,893.25353 0 0 1 44.4258,77.44922 893.25353,893.25353 0 0 1 30.4746,68.09375 z"
         style="opacity:1;fill:#f9f9f9;fill-opacity:1;fill-rule:nonzero;stroke:none;stroke-width:1.21636021;stroke-linecap:round;stroke-linejoin:miter;stroke-miterlimit:4;stroke-dasharray:none;stroke-dashoffset:0;stroke-opacity:1" />
      <path
         inkscape:connector-curvature="0"
         transform="scale(0.26458333)"
         id="path845"
         d="m 1660,1478.3418 v 159.8828 c 0,18.4424 17.84,33.2891 40,33.2891 h 31.4297 c 22.16,0 40,-14.8467 40,-33.2891 v -355.9219 a 893.25353,893.25353 0 0 1 -3.8067,10.4278 893.25353,893.25353 0 0 1 -38.8378,80.4004 893.25353,893.25353 0 0 1 -46.67,76.1191 893.25353,893.25353 0 0 1 -22.1152,29.0918 z"
         style="opacity:1;fill:#f9f9f9;fill-opacity:1;fill-rule:nonzero;stroke:none;stroke-width:1.21636021;stroke-linecap:round;stroke-linejoin:miter;stroke-miterlimit:4;stroke-dasharray:none;stroke-dashoffset:0;stroke-opacity:1" />
    </g>
  </g>
  <g
     inkscape:label="Besteck Kopie"
     id="g839"
     inkscape:groupmode="layer"
     style="display:none"
     sodipodi:insensitive="true">
    <path
       sodipodi:nodetypes="ssccssssccss"
       inkscape:connector-curvature="0"
       id="path837"
       d="m 458.10744,57.745235 c -19.77454,0 -18.89911,105.235725 -18.89911,130.727415 v 42.23412 38.58646 164.15379 c 0,4.87956 4.72016,8.80774 10.58333,8.80774 h 8.31578 c 5.86316,0 10.58333,-3.92818 10.58333,-8.80774 V 269.29323 230.70677 72.452865 c 0,-11.305138 -4.72017,-14.70763 -10.58333,-14.70763 z"
       style="opacity:1;fill:#e6e6e6;fill-opacity:1;fill-rule:nonzero;stroke:none;stroke-width:0.32182863;stroke-linecap:round;stroke-linejoin:miter;stroke-miterlimit:4;stroke-dasharray:none;stroke-dashoffset:0;stroke-opacity:1" />
  </g>
  <g
     inkscape:label="Teller"
     inkscape:groupmode="layer"
     id="layer1"
     transform="translate(0,203)"
     style="display:inline"
     sodipodi:insensitive="true">
    <g
       id="g824">
      <circle
         r="225"
         cy="47"
         cx="250"
         id="path815"
         style="opacity:1;fill:#ffffff;fill-opacity:1;fill-rule:nonzero;stroke:none;stroke-width:0.3589749;stroke-linecap:round;stroke-linejoin:miter;stroke-miterlimit:4;stroke-dasharray:none;stroke-dashoffset:0;stroke-opacity:1" />
      <circle
         r="159.85835"
         cy="47"
         cx="250"
         id="path817"
         style="opacity:1;fill:#e6e6e6;fill-opacity:1;fill-rule:nonzero;stroke:none;stroke-width:0.28859508;stroke-linecap:round;stroke-linejoin:miter;stroke-miterlimit:4;stroke-dasharray:none;stroke-dashoffset:0;stroke-opacity:1" />
      <circle
         r="142.69801"
         cy="47"
         cx="250"
         id="path819"
         style="opacity:1;fill:#f9f9f9;fill-opacity:1;fill-rule:nonzero;stroke:none;stroke-width:0.27042723;stroke-linecap:round;stroke-linejoin:miter;stroke-miterlimit:4;stroke-dasharray:none;stroke-dashoffset:0;stroke-opacity:1" />
    </g>
  </g>
</svg>
